%YAML 1.1
%TAG !u! tag:unity3d.com,2011:
--- !u!1 &9121608739787364587
GameObject:
  m_ObjectHideFlags: 0
  m_CorrespondingSourceObject: {fileID: 0}
  m_PrefabInstance: {fileID: 0}
  m_PrefabAsset: {fileID: 0}
  serializedVersion: 6
  m_Component:
  - component: {fileID: 9121608739786867915}
  - component: {fileID: 9121608740007305316}
  - component: {fileID: 9121608740007305317}
  m_Layer: 0
  m_Name: SlowDown
  m_TagString: Powerup
  m_Icon: {fileID: 0}
  m_NavMeshLayer: 0
  m_StaticEditorFlags: 0
  m_IsActive: 1
--- !u!4 &9121608739786867915
Transform:
  m_ObjectHideFlags: 0
  m_CorrespondingSourceObject: {fileID: 0}
  m_PrefabInstance: {fileID: 0}
  m_PrefabAsset: {fileID: 0}
  m_GameObject: {fileID: 9121608739787364587}
  m_LocalRotation: {x: 0, y: 0, z: 0, w: 1}
  m_LocalPosition: {x: 0, y: 0, z: 30}
  m_LocalScale: {x: 3, y: 3, z: 3}
  m_Children:
  - {fileID: 1413689241444169306}
  m_Father: {fileID: 0}
  m_RootOrder: 0
  m_LocalEulerAnglesHint: {x: 0, y: 0, z: 0}
--- !u!65 &9121608740007305316
BoxCollider:
  m_ObjectHideFlags: 0
  m_CorrespondingSourceObject: {fileID: 0}
  m_PrefabInstance: {fileID: 0}
  m_PrefabAsset: {fileID: 0}
  m_GameObject: {fileID: 9121608739787364587}
  m_Material: {fileID: 0}
  m_IsTrigger: 1
  m_Enabled: 1
  serializedVersion: 2
  m_Size: {x: 6.13599, y: 1.4259609, z: 13.604335}
  m_Center: {x: -0.049999874, y: 0.71298045, z: -6.051042}
--- !u!114 &9121608740007305317
MonoBehaviour:
  m_ObjectHideFlags: 0
  m_CorrespondingSourceObject: {fileID: 0}
  m_PrefabInstance: {fileID: 0}
  m_PrefabAsset: {fileID: 0}
  m_GameObject: {fileID: 9121608739787364587}
  m_Enabled: 1
  m_EditorHideFlags: 0
  m_Script: {fileID: 11500000, guid: 3af3404530a125f449fbcc5257b20b25, type: 3}
  m_Name: 
  m_EditorClassIdentifier: 
  IncreaseSpeed: 0
--- !u!1001 &9121608740441074115
PrefabInstance:
  m_ObjectHideFlags: 0
  serializedVersion: 2
  m_Modification:
    m_TransformParent: {fileID: 9121608739786867915}
    m_Modifications:
    - target: {fileID: 68007415751402039, guid: 3223249d6b4cdb84da0558d87690a352,
        type: 3}
      propertyPath: m_Enabled
      value: 0
      objectReference: {fileID: 0}
    - target: {fileID: 291450129366586172, guid: 3223249d6b4cdb84da0558d87690a352,
        type: 3}
      propertyPath: m_Enabled
      value: 0
      objectReference: {fileID: 0}
    - target: {fileID: 397539723166586996, guid: 3223249d6b4cdb84da0558d87690a352,
        type: 3}
      propertyPath: m_Enabled
      value: 0
      objectReference: {fileID: 0}
    - target: {fileID: 1356289562730143101, guid: 3223249d6b4cdb84da0558d87690a352,
        type: 3}
      propertyPath: m_Enabled
      value: 0
      objectReference: {fileID: 0}
    - target: {fileID: 1393281133687354129, guid: 3223249d6b4cdb84da0558d87690a352,
        type: 3}
      propertyPath: m_Enabled
      value: 0
      objectReference: {fileID: 0}
    - target: {fileID: 1884479779176986353, guid: 3223249d6b4cdb84da0558d87690a352,
        type: 3}
      propertyPath: m_Enabled
      value: 0
      objectReference: {fileID: 0}
    - target: {fileID: 2320749973489344790, guid: 3223249d6b4cdb84da0558d87690a352,
        type: 3}
      propertyPath: m_Enabled
      value: 0
      objectReference: {fileID: 0}
    - target: {fileID: 2537025789666507065, guid: 3223249d6b4cdb84da0558d87690a352,
        type: 3}
      propertyPath: m_Enabled
      value: 0
      objectReference: {fileID: 0}
    - target: {fileID: 2654278695996956045, guid: 3223249d6b4cdb84da0558d87690a352,
        type: 3}
      propertyPath: m_Enabled
      value: 0
      objectReference: {fileID: 0}
    - target: {fileID: 2717324595727853191, guid: 3223249d6b4cdb84da0558d87690a352,
        type: 3}
      propertyPath: m_Enabled
      value: 0
      objectReference: {fileID: 0}
    - target: {fileID: 3826467786771701428, guid: 3223249d6b4cdb84da0558d87690a352,
        type: 3}
      propertyPath: m_Enabled
      value: 0
      objectReference: {fileID: 0}
    - target: {fileID: 4231333359133008094, guid: 3223249d6b4cdb84da0558d87690a352,
        type: 3}
      propertyPath: m_Enabled
      value: 0
      objectReference: {fileID: 0}
    - target: {fileID: 6257308166353362642, guid: 3223249d6b4cdb84da0558d87690a352,
        type: 3}
      propertyPath: m_Enabled
      value: 0
      objectReference: {fileID: 0}
    - target: {fileID: 6580675957530717578, guid: 3223249d6b4cdb84da0558d87690a352,
        type: 3}
      propertyPath: m_Name
      value: characterSign
      objectReference: {fileID: 0}
    - target: {fileID: 6836086924410614581, guid: 3223249d6b4cdb84da0558d87690a352,
        type: 3}
      propertyPath: m_Enabled
      value: 0
      objectReference: {fileID: 0}
    - target: {fileID: 7073029129185663504, guid: 3223249d6b4cdb84da0558d87690a352,
        type: 3}
      propertyPath: m_Enabled
      value: 0
      objectReference: {fileID: 0}
    - target: {fileID: 7273720983557505795, guid: 3223249d6b4cdb84da0558d87690a352,
        type: 3}
      propertyPath: m_Enabled
      value: 0
      objectReference: {fileID: 0}
    - target: {fileID: 7312482852499361984, guid: 3223249d6b4cdb84da0558d87690a352,
        type: 3}
      propertyPath: m_Enabled
      value: 0
      objectReference: {fileID: 0}
    - target: {fileID: 7338688704164606650, guid: 3223249d6b4cdb84da0558d87690a352,
        type: 3}
      propertyPath: m_Enabled
      value: 0
      objectReference: {fileID: 0}
    - target: {fileID: 7856556153797648281, guid: 3223249d6b4cdb84da0558d87690a352,
        type: 3}
      propertyPath: m_LocalPosition.x
      value: 0
      objectReference: {fileID: 0}
    - target: {fileID: 7856556153797648281, guid: 3223249d6b4cdb84da0558d87690a352,
        type: 3}
      propertyPath: m_LocalPosition.y
      value: 0
      objectReference: {fileID: 0}
    - target: {fileID: 7856556153797648281, guid: 3223249d6b4cdb84da0558d87690a352,
        type: 3}
      propertyPath: m_LocalPosition.z
      value: 0
      objectReference: {fileID: 0}
    - target: {fileID: 7856556153797648281, guid: 3223249d6b4cdb84da0558d87690a352,
        type: 3}
      propertyPath: m_LocalRotation.x
      value: -0
      objectReference: {fileID: 0}
    - target: {fileID: 7856556153797648281, guid: 3223249d6b4cdb84da0558d87690a352,
        type: 3}
      propertyPath: m_LocalRotation.y
      value: -0
      objectReference: {fileID: 0}
    - target: {fileID: 7856556153797648281, guid: 3223249d6b4cdb84da0558d87690a352,
        type: 3}
      propertyPath: m_LocalRotation.z
      value: -0
      objectReference: {fileID: 0}
    - target: {fileID: 7856556153797648281, guid: 3223249d6b4cdb84da0558d87690a352,
        type: 3}
      propertyPath: m_LocalRotation.w
      value: -1
      objectReference: {fileID: 0}
    - target: {fileID: 7856556153797648281, guid: 3223249d6b4cdb84da0558d87690a352,
        type: 3}
      propertyPath: m_RootOrder
      value: 0
      objectReference: {fileID: 0}
    - target: {fileID: 7856556153797648281, guid: 3223249d6b4cdb84da0558d87690a352,
        type: 3}
      propertyPath: m_LocalEulerAnglesHint.x
      value: 0
      objectReference: {fileID: 0}
    - target: {fileID: 7856556153797648281, guid: 3223249d6b4cdb84da0558d87690a352,
        type: 3}
      propertyPath: m_LocalEulerAnglesHint.y
      value: 180
      objectReference: {fileID: 0}
    - target: {fileID: 7856556153797648281, guid: 3223249d6b4cdb84da0558d87690a352,
        type: 3}
      propertyPath: m_LocalEulerAnglesHint.z
      value: 0
      objectReference: {fileID: 0}
    - target: {fileID: 7856556153797648281, guid: 3223249d6b4cdb84da0558d87690a352,
        type: 3}
      propertyPath: m_LocalScale.x
      value: 1
      objectReference: {fileID: 0}
    - target: {fileID: 7856556153797648281, guid: 3223249d6b4cdb84da0558d87690a352,
        type: 3}
      propertyPath: m_LocalScale.y
      value: 1
      objectReference: {fileID: 0}
    - target: {fileID: 7856556153797648281, guid: 3223249d6b4cdb84da0558d87690a352,
        type: 3}
      propertyPath: m_LocalScale.z
      value: 1
      objectReference: {fileID: 0}
    - target: {fileID: 7937446148828795373, guid: 3223249d6b4cdb84da0558d87690a352,
        type: 3}
      propertyPath: m_Enabled
      value: 0
      objectReference: {fileID: 0}
    - target: {fileID: 7995763970036935899, guid: 3223249d6b4cdb84da0558d87690a352,
        type: 3}
      propertyPath: m_Enabled
      value: 0
      objectReference: {fileID: 0}
    - target: {fileID: 8548787467422084564, guid: 3223249d6b4cdb84da0558d87690a352,
        type: 3}
      propertyPath: m_Enabled
      value: 0
      objectReference: {fileID: 0}
    m_RemovedComponents: []
  m_SourcePrefab: {fileID: 100100000, guid: 3223249d6b4cdb84da0558d87690a352, type: 3}
--- !u!4 &1413689241444169306 stripped
Transform:
  m_CorrespondingSourceObject: {fileID: 7856556153797648281, guid: 3223249d6b4cdb84da0558d87690a352,
    type: 3}
  m_PrefabInstance: {fileID: 9121608740441074115}
  m_PrefabAsset: {fileID: 0}
